{
	"name": "Picante de Pollo",
	"description": "Plato de Zudañes",
	"category": "Plato Fuerte",
	"price": "30.60",
	"comments":[
		{
			"rating": 1,
			"comment": "Me sirvieron frio!!",
			"author": "Francisco Cortez"
		}
	]
}
